<?xml version="1.0" encoding="UTF-8" standalone="no"?>
<!-- Created with Inkscape (http://www.inkscape.org/) -->

<svg
   xmlns:dc="http://purl.org/dc/elements/1.1/"
   xmlns:cc="http://creativecommons.org/ns#"
   xmlns:rdf="http://www.w3.org/1999/02/22-rdf-syntax-ns#"
   xmlns:svg="http://www.w3.org/2000/svg"
   xmlns="http://www.w3.org/2000/svg"
   xmlns:sodipodi="http://sodipodi.sourceforge.net/DTD/sodipodi-0.dtd"
   xmlns:inkscape="http://www.inkscape.org/namespaces/inkscape"
   width="744.09448819"
   height="1052.3622047"
   id="svg3399"
   version="1.1"
   inkscape:version="0.48.1 r9760"
   sodipodi:docname="New document 1">
  <defs
     id="defs3401" />
  <sodipodi:namedview
     id="base"
     pagecolor="#ffffff"
     bordercolor="#666666"
     borderopacity="1.0"
     inkscape:pageopacity="0.0"
     inkscape:pageshadow="2"
     inkscape:zoom="0.7"
     inkscape:cx="652.01092"
     inkscape:cy="637.11187"
     inkscape:document-units="px"
     inkscape:current-layer="layer1"
     showgrid="false"
     inkscape:window-width="1366"
     inkscape:window-height="744"
     inkscape:window-x="0"
     inkscape:window-y="0"
     inkscape:window-maximized="1" />
  <metadata
     id="metadata3404">
    <rdf:RDF>
      <cc:Work
         rdf:about="">
        <dc:format>image/svg+xml</dc:format>
        <dc:type
           rdf:resource="http://purl.org/dc/dcmitype/StillImage" />
        <dc:title></dc:title>
      </cc:Work>
    </rdf:RDF>
  </metadata>
  <g
     inkscape:label="Layer 1"
     inkscape:groupmode="layer"
     id="layer1">
    <text
       xml:space="preserve"
       style="font-size:12px;font-style:normal;font-variant:normal;font-weight:bold;font-stretch:normal;line-height:125%;letter-spacing:0px;word-spacing:0px;fill:#000000;fill-opacity:1;stroke:none;font-family:OSP-DIN;-inkscape-font-specification:OSP-DIN Bold"
       x="18.571428"
       y="58.076469"
       id="text3407"
       sodipodi:linespacing="125%"><tspan
         sodipodi:role="line"
         x="18.571428"
         y="58.076469"
         id="tspan3447"
         style="font-size:12px;font-style:normal;font-variant:normal;font-weight:normal;font-stretch:normal;font-family:Open Sans;-inkscape-font-specification:Open Sans">&lt;!DOCTYPE bdf encoding=&quot;UTF-8&quot;?&gt;</tspan><tspan
         sodipodi:role="line"
         x="18.571428"
         y="73.076469"
         style="font-size:12px;font-style:normal;font-variant:normal;font-weight:normal;font-stretch:normal;font-family:Open Sans;-inkscape-font-specification:Open Sans"
         id="tspan5710">&lt;document-info&gt;</tspan><tspan
         sodipodi:role="line"
         x="18.571428"
         y="88.076469"
         id="tspan3449"
         style="font-size:12px;font-style:normal;font-variant:normal;font-weight:normal;font-stretch:normal;font-family:Open Sans;-inkscape-font-specification:Open Sans"> &lt;personal&gt;</tspan><tspan
         sodipodi:role="line"
         x="18.571428"
         y="103.07647"
         id="tspan3451"
         style="font-size:12px;font-style:normal;font-variant:normal;font-weight:normal;font-stretch:normal;font-family:Open Sans;-inkscape-font-specification:Open Sans">   &lt;family-name&gt;Dang&lt;/family-name&gt;</tspan><tspan
         sodipodi:role="line"
         x="18.571428"
         y="118.07647"
         id="tspan3453"
         style="font-size:12px;font-style:normal;font-variant:normal;font-weight:normal;font-stretch:normal;font-family:Open Sans;-inkscape-font-specification:Open Sans">   &lt;given-name&gt;Hong Phuc&lt;/given-name&gt;</tspan><tspan
         sodipodi:role="line"
         x="18.571428"
         y="133.07648"
         id="tspan3455"
         style="font-size:12px;font-style:normal;font-variant:normal;font-weight:normal;font-stretch:normal;font-family:Open Sans;-inkscape-font-specification:Open Sans">   &lt;birth-date&gt;1992-02-17T10:01:18&lt;/birth-date&gt;</tspan><tspan
         sodipodi:role="line"
         x="18.571428"
         y="148.07648"
         id="tspan3457"
         style="font-size:12px;font-style:normal;font-variant:normal;font-weight:normal;font-stretch:normal;font-family:Open Sans;-inkscape-font-specification:Open Sans">   &lt;sex&gt;female&lt;/sex&gt;</tspan><tspan
         sodipodi:role="line"
         x="18.571428"
         y="163.07648"
         id="tspan3459"
         style="font-size:12px;font-style:normal;font-variant:normal;font-weight:normal;font-stretch:normal;font-family:Open Sans;-inkscape-font-specification:Open Sans"> &lt;/personal&gt;</tspan><tspan
         sodipodi:role="line"
         x="18.571428"
         y="178.07648"
         id="tspan3461"
         style="font-size:12px;font-style:normal;font-variant:normal;font-weight:normal;font-stretch:normal;font-family:Open Sans;-inkscape-font-specification:Open Sans"> &lt;body-measurements&gt;</tspan><tspan
         sodipodi:role="line"
         x="18.571428"
         y="193.07648"
         id="tspan3463"
         style="font-size:12px;font-style:normal;font-variant:normal;font-weight:normal;font-stretch:normal;font-family:Open Sans;-inkscape-font-specification:Open Sans">   &lt;unit&gt;cm&lt;/unit&gt;</tspan><tspan
         sodipodi:role="line"
         x="18.571428"
         y="208.07648"
         id="tspan3465"
         style="font-size:12px;font-style:normal;font-variant:normal;font-weight:normal;font-stretch:normal;font-family:Open Sans;-inkscape-font-specification:Open Sans">   &lt;head&gt;</tspan><tspan
         sodipodi:role="line"
         x="18.571428"
         y="223.07648"
         id="tspan3467"
         style="font-size:12px;font-style:normal;font-variant:normal;font-weight:normal;font-stretch:normal;font-family:Open Sans;-inkscape-font-specification:Open Sans">     &lt;head_girth&gt;&lt;/head_girth&gt;</tspan><tspan
         sodipodi:role="line"
         x="18.571428"
         y="238.07648"
         id="tspan3469"
         style="font-size:12px;font-style:normal;font-variant:normal;font-weight:normal;font-stretch:normal;font-family:Open Sans;-inkscape-font-specification:Open Sans">     &lt;head_and_neck_length&gt;&lt;/head_and_neck_length&gt;</tspan><tspan
         sodipodi:role="line"
         x="18.571428"
         y="253.07648"
         id="tspan3471"
         style="font-size:12px;font-style:normal;font-variant:normal;font-weight:normal;font-stretch:normal;font-family:Open Sans;-inkscape-font-specification:Open Sans">   &lt;/head&gt;</tspan><tspan
         sodipodi:role="line"
         x="18.571428"
         y="268.07648"
         id="tspan3473"
         style="font-size:12px;font-style:normal;font-variant:normal;font-weight:normal;font-stretch:normal;font-family:Open Sans;-inkscape-font-specification:Open Sans">   &lt;neck&gt;</tspan><tspan
         sodipodi:role="line"
         x="18.571428"
         y="283.07648"
         id="tspan3475"
         style="font-size:12px;font-style:normal;font-variant:normal;font-weight:normal;font-stretch:normal;font-family:Open Sans;-inkscape-font-specification:Open Sans">     &lt;mid_neck_girth&gt;&lt;/mid_neck_girth&gt;</tspan><tspan
         sodipodi:role="line"
         x="18.571428"
         y="298.07648"
         id="tspan3477"
         style="font-size:12px;font-style:normal;font-variant:normal;font-weight:normal;font-stretch:normal;font-family:Open Sans;-inkscape-font-specification:Open Sans">     &lt;neck_base_girth&gt;&lt;/neck_base_girth&gt;</tspan><tspan
         sodipodi:role="line"
         x="18.571428"
         y="313.07648"
         id="tspan3479"
         style="font-size:12px;font-style:normal;font-variant:normal;font-weight:normal;font-stretch:normal;font-family:Open Sans;-inkscape-font-specification:Open Sans">   &lt;/neck&gt;</tspan><tspan
         sodipodi:role="line"
         x="18.571428"
         y="328.07648"
         id="tspan3481"
         style="font-size:12px;font-style:normal;font-variant:normal;font-weight:normal;font-stretch:normal;font-family:Open Sans;-inkscape-font-specification:Open Sans">   &lt;torso&gt;</tspan><tspan
         sodipodi:role="line"
         x="18.571428"
         y="343.07648"
         id="tspan3483"
         style="font-size:12px;font-style:normal;font-variant:normal;font-weight:normal;font-stretch:normal;font-family:Open Sans;-inkscape-font-specification:Open Sans">     &lt;shoulder_girth&gt;&lt;/shoulder_girth&gt;</tspan><tspan
         sodipodi:role="line"
         x="18.571428"
         y="358.07648"
         id="tspan3485"
         style="font-size:12px;font-style:normal;font-variant:normal;font-weight:normal;font-stretch:normal;font-family:Open Sans;-inkscape-font-specification:Open Sans">     &lt;upper_chest_girth&gt;&lt;/upper_chest_girth&gt;</tspan><tspan
         sodipodi:role="line"
         x="18.571428"
         y="373.07648"
         id="tspan3487"
         style="font-size:12px;font-style:normal;font-variant:normal;font-weight:normal;font-stretch:normal;font-family:Open Sans;-inkscape-font-specification:Open Sans">     &lt;bust__girth&gt;&lt;/bust__girth&gt;</tspan><tspan
         sodipodi:role="line"
         x="18.571428"
         y="388.07648"
         id="tspan3489"
         style="font-size:12px;font-style:normal;font-variant:normal;font-weight:normal;font-stretch:normal;font-family:Open Sans;-inkscape-font-specification:Open Sans">     &lt;under_bust_girth&gt;&lt;/under_bust_girth&gt;</tspan><tspan
         sodipodi:role="line"
         x="18.571428"
         y="403.07648"
         id="tspan3491"
         style="font-size:12px;font-style:normal;font-variant:normal;font-weight:normal;font-stretch:normal;font-family:Open Sans;-inkscape-font-specification:Open Sans">     &lt;waist_girth&gt;&lt;/waist_girth&gt;</tspan><tspan
         sodipodi:role="line"
         x="18.571428"
         y="418.07648"
         id="tspan3493"
         style="font-size:12px;font-style:normal;font-variant:normal;font-weight:normal;font-stretch:normal;font-family:Open Sans;-inkscape-font-specification:Open Sans">     &lt;waist_to_hip_height&gt;&lt;/waist_to_hip_height&gt;</tspan><tspan
         sodipodi:role="line"
         x="18.571428"
         y="433.07648"
         id="tspan3495"
         style="font-size:12px;font-style:normal;font-variant:normal;font-weight:normal;font-stretch:normal;font-family:Open Sans;-inkscape-font-specification:Open Sans">     &lt;waist_to_knee_height&gt;&lt;/waist_to_knee_height&gt;</tspan><tspan
         sodipodi:role="line"
         x="18.571428"
         y="448.07648"
         id="tspan3497"
         style="font-size:12px;font-style:normal;font-variant:normal;font-weight:normal;font-stretch:normal;font-family:Open Sans;-inkscape-font-specification:Open Sans">     &lt;waist_height&gt;&lt;/waist_height&gt;</tspan><tspan
         sodipodi:role="line"
         x="18.571428"
         y="463.07648"
         id="tspan3499"
         style="font-size:12px;font-style:normal;font-variant:normal;font-weight:normal;font-stretch:normal;font-family:Open Sans;-inkscape-font-specification:Open Sans">     &lt;side_waist_length&gt;&lt;/side_waist_length&gt;</tspan><tspan
         sodipodi:role="line"
         x="18.571428"
         y="478.07648"
         id="tspan3501"
         style="font-size:12px;font-style:normal;font-variant:normal;font-weight:normal;font-stretch:normal;font-family:Open Sans;-inkscape-font-specification:Open Sans">     &lt;center_front_waist_length&gt;&lt;/center_front_waist_length&gt;</tspan><tspan
         sodipodi:role="line"
         x="18.571428"
         y="493.07648"
         id="tspan3503"
         style="font-size:12px;font-style:normal;font-variant:normal;font-weight:normal;font-stretch:normal;font-family:Open Sans;-inkscape-font-specification:Open Sans">     &lt;center_back_waist_length&gt;&lt;/center_back_waist_length&gt;</tspan><tspan
         sodipodi:role="line"
         x="18.571428"
         y="508.07648"
         id="tspan3505"
         style="font-size:12px;font-style:normal;font-variant:normal;font-weight:normal;font-stretch:normal;font-family:Open Sans;-inkscape-font-specification:Open Sans">     &lt;shoulder_length&gt;&lt;/shoulder_length&gt;</tspan><tspan
         sodipodi:role="line"
         x="18.571428"
         y="523.07648"
         id="tspan3507"
         style="font-size:12px;font-style:normal;font-variant:normal;font-weight:normal;font-stretch:normal;font-family:Open Sans;-inkscape-font-specification:Open Sans">     &lt;shoulder_and_arm_length&gt;&lt;/shoulder_and_arm_length&gt;</tspan><tspan
         sodipodi:role="line"
         x="18.571428"
         y="538.07648"
         id="tspan3509"
         style="font-size:12px;font-style:normal;font-variant:normal;font-weight:normal;font-stretch:normal;font-family:Open Sans;-inkscape-font-specification:Open Sans">     &lt;upper_front_chest_width&gt;&lt;/upper_front_chest_width&gt;</tspan><tspan
         sodipodi:role="line"
         x="18.571428"
         y="553.07648"
         id="tspan3511"
         style="font-size:12px;font-style:normal;font-variant:normal;font-weight:normal;font-stretch:normal;font-family:Open Sans;-inkscape-font-specification:Open Sans">     &lt;front_chest_width&gt;&lt;/front_chest_width&gt;</tspan><tspan
         sodipodi:role="line"
         x="18.571428"
         y="568.07648"
         id="tspan3513"
         style="font-size:12px;font-style:normal;font-variant:normal;font-weight:normal;font-stretch:normal;font-family:Open Sans;-inkscape-font-specification:Open Sans">     &lt;across_front_shoulder_width&gt;&lt;/across_front_shoulder_width&gt;</tspan><tspan
         sodipodi:role="line"
         x="18.571428"
         y="583.07648"
         id="tspan3515"
         style="font-size:12px;font-style:normal;font-variant:normal;font-weight:normal;font-stretch:normal;font-family:Open Sans;-inkscape-font-specification:Open Sans">     &lt;across_back_shoulder_width&gt;&lt;/across_back_shoulder_width&gt;</tspan><tspan
         sodipodi:role="line"
         x="18.571428"
         y="598.07648"
         id="tspan3517"
         style="font-size:12px;font-style:normal;font-variant:normal;font-weight:normal;font-stretch:normal;font-family:Open Sans;-inkscape-font-specification:Open Sans">     &lt;upper_back_width&gt;&lt;/upper_back_width&gt;</tspan><tspan
         sodipodi:role="line"
         x="18.571428"
         y="613.07648"
         id="tspan3519"
         style="font-size:12px;font-style:normal;font-variant:normal;font-weight:normal;font-stretch:normal;font-family:Open Sans;-inkscape-font-specification:Open Sans">     &lt;back_width&gt;&lt;/back_width&gt;</tspan><tspan
         sodipodi:role="line"
         x="18.571428"
         y="628.07648"
         id="tspan3521"
         style="font-size:12px;font-style:normal;font-variant:normal;font-weight:normal;font-stretch:normal;font-family:Open Sans;-inkscape-font-specification:Open Sans">     &lt;shoulder_width&gt;&lt;/shoulder_width&gt;</tspan><tspan
         sodipodi:role="line"
         x="18.571428"
         y="643.07648"
         id="tspan3523"
         style="font-size:12px;font-style:normal;font-variant:normal;font-weight:normal;font-stretch:normal;font-family:Open Sans;-inkscape-font-specification:Open Sans">     &lt;bustpoint_to_bustpoint&gt;&lt;/bustpoint_to_bustpoint&gt;</tspan><tspan
         sodipodi:role="line"
         x="18.571428"
         y="658.07648"
         id="tspan3525"
         style="font-size:12px;font-style:normal;font-variant:normal;font-weight:normal;font-stretch:normal;font-family:Open Sans;-inkscape-font-specification:Open Sans">     &lt;halter_bustpoint_to_bustpoint&gt;&lt;/halter_bustpoint_to_bustpoint&gt;</tspan><tspan
         sodipodi:role="line"
         x="18.571428"
         y="673.07648"
         id="tspan3527"
         style="font-size:12px;font-style:normal;font-variant:normal;font-weight:normal;font-stretch:normal;font-family:Open Sans;-inkscape-font-specification:Open Sans">     &lt;neck_to_bustpoint&gt;&lt;/neck_to_bustpoint&gt;</tspan><tspan
         sodipodi:role="line"
         x="18.571428"
         y="688.07648"
         id="tspan3529"
         style="font-size:12px;font-style:normal;font-variant:normal;font-weight:normal;font-stretch:normal;font-family:Open Sans;-inkscape-font-specification:Open Sans">     &lt;shoulder_slope_degree&gt;&lt;/shoulder_slope_degree&gt;</tspan><tspan
         sodipodi:role="line"
         x="18.571428"
         y="703.07648"
         id="tspan3531"
         style="font-size:12px;font-style:normal;font-variant:normal;font-weight:normal;font-stretch:normal;font-family:Open Sans;-inkscape-font-specification:Open Sans">   &lt;/torso&gt;</tspan><tspan
         sodipodi:role="line"
         x="18.571428"
         y="718.07648"
         id="tspan3533"
         style="font-size:12px;font-style:normal;font-variant:normal;font-weight:normal;font-stretch:normal;font-family:Open Sans;-inkscape-font-specification:Open Sans">   &lt;arm&gt;</tspan><tspan
         sodipodi:role="line"
         x="18.571428"
         y="733.07648"
         id="tspan3535"
         style="font-size:12px;font-style:normal;font-variant:normal;font-weight:normal;font-stretch:normal;font-family:Open Sans;-inkscape-font-specification:Open Sans">     &lt;trunk_girth&gt;&lt;/trunk_girth&gt;</tspan><tspan
         sodipodi:role="line"
         x="18.571428"
         y="748.07648"
         id="tspan3537"
         style="font-size:12px;font-style:normal;font-variant:normal;font-weight:normal;font-stretch:normal;font-family:Open Sans;-inkscape-font-specification:Open Sans">     &lt;armscye_girth&gt;&lt;/armscye_girth&gt;</tspan><tspan
         sodipodi:role="line"
         x="18.571428"
         y="763.07648"
         id="tspan3539"
         style="font-size:12px;font-style:normal;font-variant:normal;font-weight:normal;font-stretch:normal;font-family:Open Sans;-inkscape-font-specification:Open Sans">     &lt;elbow_girth&gt;&lt;/elbow_girth&gt;</tspan><tspan
         sodipodi:role="line"
         x="18.571428"
         y="778.07648"
         id="tspan3541"
         style="font-size:12px;font-style:normal;font-variant:normal;font-weight:normal;font-stretch:normal;font-family:Open Sans;-inkscape-font-specification:Open Sans">     &lt;upper_arm_girth&gt;&lt;/upper_arm_girth&gt;</tspan><tspan
         sodipodi:role="line"
         x="18.571428"
         y="793.07648"
         id="tspan3543"
         style="font-size:12px;font-style:normal;font-variant:normal;font-weight:normal;font-stretch:normal;font-family:Open Sans;-inkscape-font-specification:Open Sans">     &lt;wrist_girth&gt;&lt;/wrist_girth&gt;</tspan><tspan
         sodipodi:role="line"
         x="18.571428"
         y="808.07648"
         id="tspan3545"
         style="font-size:12px;font-style:normal;font-variant:normal;font-weight:normal;font-stretch:normal;font-family:Open Sans;-inkscape-font-specification:Open Sans">     &lt;underarm_length&gt;&lt;/underarm_length&gt;</tspan><tspan
         sodipodi:role="line"
         x="18.571428"
         y="823.07648"
         id="tspan3547"
         style="font-size:12px;font-style:normal;font-variant:normal;font-weight:normal;font-stretch:normal;font-family:Open Sans;-inkscape-font-specification:Open Sans">     &lt;cervical_to_wrist_length&gt;&lt;/cervical_to_wrist_length&gt;</tspan><tspan
         sodipodi:role="line"
         x="18.571428"
         y="838.07648"
         id="tspan3549"
         style="font-size:12px;font-style:normal;font-variant:normal;font-weight:normal;font-stretch:normal;font-family:Open Sans;-inkscape-font-specification:Open Sans">     &lt;shoulder_to_elbow_length&gt;&lt;/shoulder_to_elbow_length&gt;</tspan><tspan
         sodipodi:role="line"
         x="18.571428"
         y="853.07648"
         id="tspan3551"
         style="font-size:12px;font-style:normal;font-variant:normal;font-weight:normal;font-stretch:normal;font-family:Open Sans;-inkscape-font-specification:Open Sans">     &lt;arm_length&gt;&lt;/arm_length&gt;</tspan><tspan
         sodipodi:role="line"
         x="18.571428"
         y="868.07648"
         id="tspan3553"
         style="font-size:12px;font-style:normal;font-variant:normal;font-weight:normal;font-stretch:normal;font-family:Open Sans;-inkscape-font-specification:Open Sans">     &lt;scye_depth&gt;&lt;/scye_depth&gt;</tspan><tspan
         sodipodi:role="line"
         x="18.571428"
         y="883.07648"
         id="tspan3555"
         style="font-size:12px;font-style:normal;font-variant:normal;font-weight:normal;font-stretch:normal;font-family:Open Sans;-inkscape-font-specification:Open Sans">   &lt;/arm&gt;</tspan><tspan
         sodipodi:role="line"
         x="18.571428"
         y="898.07648"
         id="tspan3671"
         style="font-size:12px;font-style:normal;font-variant:normal;font-weight:normal;font-stretch:normal;font-family:Open Sans;-inkscape-font-specification:Open Sans" /></text>
    <text
       xml:space="preserve"
       style="font-size:12px;font-style:normal;font-variant:normal;font-weight:normal;font-stretch:normal;line-height:125%;letter-spacing:0px;word-spacing:0px;fill:#000000;fill-opacity:1;stroke:none;font-family:Open Sans;-inkscape-font-specification:Open Sans"
       x="410"
       y="58.012016"
       id="text5592"
       sodipodi:linespacing="125%"><tspan
         sodipodi:role="line"
         id="tspan5594"
         x="410"
         y="58.012016">   &lt;hand&gt;</tspan><tspan
         sodipodi:role="line"
         x="410"
         y="73.012016"
         id="tspan5596">     &lt;hand_girth&gt;&lt;/hand_girth&gt;</tspan><tspan
         sodipodi:role="line"
         x="410"
         y="88.012016"
         id="tspan5598">     &lt;hand_length&gt;&lt;/hand_length&gt;</tspan><tspan
         sodipodi:role="line"
         x="410"
         y="103.01202"
         id="tspan5600">     &lt;hand_width&gt;&lt;/hand_width&gt;</tspan><tspan
         sodipodi:role="line"
         x="410"
         y="118.01202"
         id="tspan5602">     &lt;thumb_length&gt;&lt;/thumb_length&gt;</tspan><tspan
         sodipodi:role="line"
         x="410"
         y="133.01202"
         id="tspan5604">     &lt;index_finger_length&gt;&lt;/index_finger_length&gt;</tspan><tspan
         sodipodi:role="line"
         x="410"
         y="148.01202"
         id="tspan5606">     &lt;middle_finger_length&gt;&lt;/middle_finger_length&gt;</tspan><tspan
         sodipodi:role="line"
         x="410"
         y="163.01202"
         id="tspan5608">     &lt;ring_finger_length&gt;&lt;/ring_finger_length&gt;</tspan><tspan
         sodipodi:role="line"
         x="410"
         y="178.01202"
         id="tspan5610">     &lt;little_finger_length&gt;&lt;/little_finger_length&gt;</tspan><tspan
         sodipodi:role="line"
         x="410"
         y="193.01202"
         id="tspan5612">     &lt;thumb_width&gt;&lt;/thumb_width&gt;</tspan><tspan
         sodipodi:role="line"
         x="410"
         y="208.01202"
         id="tspan5614">     &lt;index_finger_width&gt;&lt;/index_finger_width&gt;</tspan><tspan
         sodipodi:role="line"
         x="410"
         y="223.01202"
         id="tspan5616">     &lt;middle_finger_width&gt;&lt;/middle_finger_width&gt;</tspan><tspan
         sodipodi:role="line"
         x="410"
         y="238.01202"
         id="tspan5618">     &lt;ring_finger_width&gt;&lt;/ring_finger_width&gt;</tspan><tspan
         sodipodi:role="line"
         x="410"
         y="253.01202"
         id="tspan5620">     &lt;little_finger_width&gt;&lt;/little_finger_width&gt;</tspan><tspan
         sodipodi:role="line"
         x="410"
         y="268.01202"
         id="tspan5622">     &lt;thumb_girth&gt;&lt;/thumb_girth&gt;</tspan><tspan
         sodipodi:role="line"
         x="410"
         y="283.01202"
         id="tspan5624">     &lt;index_finger_girth&gt;&lt;/index_finger_girth&gt;</tspan><tspan
         sodipodi:role="line"
         x="410"
         y="298.01202"
         id="tspan5626">     &lt;middle_finger_girth&gt;&lt;/middle_finger_girth&gt;</tspan><tspan
         sodipodi:role="line"
         x="410"
         y="313.01202"
         id="tspan5628">     &lt;ring_finger_girth&gt;&lt;/ring_finger_girth&gt;</tspan><tspan
         sodipodi:role="line"
         x="410"
         y="328.01202"
         id="tspan5630">     &lt;little_finger_girth&gt;&lt;/little_finger_girth&gt;</tspan><tspan
         sodipodi:role="line"
         x="410"
         y="343.01202"
         id="tspan5632">   &lt;/hand&gt;</tspan><tspan
         sodipodi:role="line"
         x="410"
         y="358.01202"
         id="tspan5634">   &lt;hip&gt;</tspan><tspan
         sodipodi:role="line"
         x="410"
         y="373.01202"
         id="tspan5636">     &lt;high_hip_girth&gt;&lt;/high_hip_girth&gt;</tspan><tspan
         sodipodi:role="line"
         x="410"
         y="388.01202"
         id="tspan5638">     &lt;hip_girth&gt;&lt;/hip_girth&gt;</tspan><tspan
         sodipodi:role="line"
         x="410"
         y="403.01202"
         id="tspan5640">     &lt;high_hip_height&gt;&lt;/high_hip_height&gt;</tspan><tspan
         sodipodi:role="line"
         x="410"
         y="418.01202"
         id="tspan5642">     &lt;hip_height&gt;&lt;/hip_height&gt;</tspan><tspan
         sodipodi:role="line"
         x="410"
         y="433.01202"
         id="tspan5644">     &lt;crotch_length&gt;&lt;/crotch_length&gt;</tspan><tspan
         sodipodi:role="line"
         x="410"
         y="448.01202"
         id="tspan5646">     &lt;crotch_height&gt;&lt;/crotch_height&gt;</tspan><tspan
         sodipodi:role="line"
         x="410"
         y="463.01202"
         id="tspan5648">     &lt;rise_height&gt;&lt;/rise_height&gt;</tspan><tspan
         sodipodi:role="line"
         x="410"
         y="478.01202"
         id="tspan5650">   &lt;/hip&gt;</tspan><tspan
         sodipodi:role="line"
         x="410"
         y="493.01202"
         id="tspan5652">   &lt;leg&gt;</tspan><tspan
         sodipodi:role="line"
         x="410"
         y="508.01202"
         id="tspan5654">     &lt;thigh_girth&gt;&lt;/thigh_girth&gt;</tspan><tspan
         sodipodi:role="line"
         x="410"
         y="523.01202"
         id="tspan5656">     &lt;mid_thigh_girth&gt;&lt;/mid_thigh_girth&gt;</tspan><tspan
         sodipodi:role="line"
         x="410"
         y="538.01202"
         id="tspan5658">     &lt;knee_girth&gt;&lt;/knee_girth&gt;</tspan><tspan
         sodipodi:role="line"
         x="410"
         y="553.01202"
         id="tspan5660">     &lt;knee_girth&gt;&lt;/knee_girth&gt;</tspan><tspan
         sodipodi:role="line"
         x="410"
         y="568.01202"
         id="tspan5662">     &lt;calf_girth&gt;&lt;/calf_girth&gt;</tspan><tspan
         sodipodi:role="line"
         x="410"
         y="583.01202"
         id="tspan5664">     &lt;ankle_girth&gt;&lt;/ankle_girth&gt;</tspan><tspan
         sodipodi:role="line"
         x="410"
         y="598.01202"
         id="tspan5666">     &lt;cervical_to_knee_height&gt;&lt;/cervical_to_knee_height&gt;</tspan><tspan
         sodipodi:role="line"
         x="410"
         y="613.01202"
         id="tspan5668">     &lt;cervical_height&gt;&lt;/cervical_height&gt;</tspan><tspan
         sodipodi:role="line"
         x="410"
         y="628.01202"
         id="tspan5670">     &lt;knee_height&gt;&lt;/knee_height&gt;</tspan><tspan
         sodipodi:role="line"
         x="410"
         y="643.01202"
         id="tspan5672">     &lt;ankle_height&gt;&lt;/ankle_height&gt;</tspan><tspan
         sodipodi:role="line"
         x="410"
         y="658.01202"
         id="tspan5674">   &lt;/leg&gt;</tspan><tspan
         sodipodi:role="line"
         x="410"
         y="673.01202"
         id="tspan5676">   &lt;foot&gt;</tspan><tspan
         sodipodi:role="line"
         x="410"
         y="688.01202"
         id="tspan5678">    &lt;foot_length&gt;&lt;/foot_length&gt;</tspan><tspan
         sodipodi:role="line"
         x="410"
         y="703.01202"
         id="tspan5680">    &lt;foot_width&gt;&lt;/foot_width&gt;</tspan><tspan
         sodipodi:role="line"
         x="410"
         y="718.01202"
         id="tspan5682">    &lt;foot_across_top&gt;&lt;/foot_across_top&gt;</tspan><tspan
         sodipodi:role="line"
         x="410"
         y="733.01202"
         id="tspan5684">   &lt;/foot&gt;</tspan><tspan
         sodipodi:role="line"
         x="410"
         y="748.01202"
         id="tspan5686"> &lt;/body-measurements&gt;</tspan><tspan
         sodipodi:role="line"
         x="410"
         y="763.01202"
         id="tspan5688"> &lt;body-colors&gt;</tspan><tspan
         sodipodi:role="line"
         x="410"
         y="778.01202"
         id="tspan5690">   &lt;eye-color&gt;green&lt;/eye-color&gt;</tspan><tspan
         sodipodi:role="line"
         x="410"
         y="793.01202"
         id="tspan5692">   &lt;hair-color&gt;brown&lt;/hair-color&gt;</tspan><tspan
         sodipodi:role="line"
         x="410"
         y="808.01202"
         id="tspan5694">   &lt;skin-complexion&gt;&lt;/skin-complexion&gt;</tspan><tspan
         sodipodi:role="line"
         x="410"
         y="823.01202"
         id="tspan5696"> &lt;/body-colors&gt;</tspan><tspan
         sodipodi:role="line"
         x="410"
         y="838.01202"
         id="tspan5698"> &lt;bio-data&gt;</tspan><tspan
         sodipodi:role="line"
         x="410"
         y="853.01202"
         id="tspan5700">   &lt;blood-type&gt;A&lt;/blood-type&gt;</tspan><tspan
         sodipodi:role="line"
         x="410"
         y="868.01202"
         id="tspan5702">   &lt;allergy&gt;A&lt;/allergy&gt;</tspan><tspan
         sodipodi:role="line"
         x="410"
         y="883.01202"
         id="tspan5704">   &lt;eye_performnce&gt;0.8&lt;/eye_performnce&gt;</tspan><tspan
         sodipodi:role="line"
         x="410"
         y="898.01202"
         id="tspan5706"> &lt;/bio-data&gt;</tspan><tspan
         sodipodi:role="line"
         x="410"
         y="913.01202"
         id="tspan5708">&lt;/bdf&gt;</tspan></text>
  </g>
</svg>
