<?xml version="1.0" encoding="UTF-8" standalone="no"?>
<!-- Created with Inkscape (http://www.inkscape.org/) -->

<svg xmlns:dc="http://purl.org/dc/elements/1.1/" xmlns:cc="http://creativecommons.org/ns#" xmlns:rdf="http://www.w3.org/1999/02/22-rdf-syntax-ns#" xmlns:svg="http://www.w3.org/2000/svg" xmlns="http://www.w3.org/2000/svg" xmlns:sodipodi="http://sodipodi.sourceforge.net/DTD/sodipodi-0.dtd" xmlns:inkscape="http://www.inkscape.org/namespaces/inkscape" width="1715.08461621" height="1877.9031336" id="svg7221" version="1.1" inkscape:version="0.48.3.1 r9886" sodipodi:docname="felt_slippers.svg">
  <sodipodi:namedview id="base" pagecolor="#ffffff" bordercolor="#666666" borderopacity="1.0" inkscape:pageopacity="0.0" inkscape:pageshadow="2" inkscape:zoom="0.42095517" inkscape:cx="375" inkscape:cy="1191.4834" inkscape:document-units="px" inkscape:current-layer="slippers" showgrid="false" inkscape:window-width="1366" inkscape:window-height="744" inkscape:window-x="0" inkscape:window-y="24" inkscape:window-maximized="1" />
  <defs id="defs7223" />
  <metadata id="metadata7226">
    <rdf:RDF>
      <cc:Work rdf:about="">
        <dc:format>image/svg+xml</dc:format>
        <dc:type rdf:resource="http://purl.org/dc/dcmitype/StillImage" />
        <dc:title></dc:title>
      </cc:Work>
    </rdf:RDF>
  </metadata>
  <g id="layer1" inkscape:groupmode="layer" inkscape:label="Layer 1" />
  <defs id="defs7234">
    <marker orient="auto" id="ArrowStart" style="overflow:visible" refX="0.0" refY="0.0">
      <path id="path7237" d="M 0,0 L 0,5 L -20,0 L 0,-5 z" style="fill:DimGray; stroke:DimGray; stroke-width:0.5" />
    </marker>
    <marker orient="auto" id="ArrowEnd" style="overflow:visible" refX="0.0" refY="0.0">
      <path id="path7240" d="M 0,0 L 0,5 L 20,0 L 0,-5 z" style="fill:DimGray; stroke:DimGray; stroke-width:0.5" />
    </marker>
  </defs>
  <g inkscape:groupmode="layer" inkscape:label="pattern_base" id="pattern_base">
    <g inkscape:groupmode="layer" inkscape:label="slippers" id="slippers">
      <g transform="translate(70.8661417323 329.832282329)" inkscape:groupmode="layer" inkscape:label="slipper_top" id="A">
        <path inkscape:connector-curvature="0" style="fill:none;stroke:green;stroke-width:4;stroke-miterlimit:4;stroke-dasharray:24,4;stroke-dashoffset:0" d="M 2.677e-7,157.75899 C 236.126,157.75899 590.315,157.75899 590.315,-81.800806 C 907.601,-68.590706 1221.9,-55.505106 1375.09,73.036394 C 1279.33,278.39199 1110.49,367.89099 590.315,526.44599 C 492.299,556.32299 275.759,584.29099 219.458,584.29099 L 2.677e-7,584.29099 L 2.677e-7,157.75899" id="A_cuttingline-5" />
        <path inkscape:connector-curvature="0" style="fill:none;stroke:green;stroke-width:4;stroke-miterlimit:4;stroke-dasharray:24,4;stroke-dashoffset:0" d="M 2.677e-7,996.73249 C 2.677e-7,819.24551 146.032,749.01801 263.906,759.33071 C 755.452,802.33551 877.808,690.59051 1083.4,690.59051 C 1318.58,690.59051 1467.05,753.66641 1467.05,962.71649 C 1467.05,1219.2835 1132.64,1370.9055 972.283,1370.9055 C 791.918,1370.9055 552.49,1234.1335 263.906,1234.1335 C 185.023,1234.1335 2.677e-7,1174.2185 2.677e-7,996.73249" id="B_cuttingline-8" />
        <circle d="M 5,157.75865 C 5,160.52008 2.7614237,162.75865 0,162.75865 C -2.7614237,162.75865 -5,160.52008 -5,157.75865 C -5,154.99723 -2.7614237,152.75865 0,152.75865 C 2.7614237,152.75865 5,154.99723 5,157.75865 z" reference="true" stroke-width="1" stroke="red" fill="red" r="5" cy="157.758659228" cx="0.0" id="a1" />
        <text reference="true" style="font-size:30;text-anchor:left;text-align:left" y="149.758659228" x="8.0" id="a1_text">a1</text>
        <circle d="M 595.315,-81.800789 C 595.315,-79.039365 593.07643,-76.800789 590.315,-76.800789 C 587.55358,-76.800789 585.315,-79.039365 585.315,-81.800789 C 585.315,-84.562213 587.55358,-86.800789 590.315,-86.800789 C 593.07643,-86.800789 595.315,-84.562213 595.315,-81.800789 z" reference="true" stroke-width="1" stroke="red" fill="red" r="5" cy="-81.8007862662" cx="590.314972119" id="a2" />
        <text reference="true" style="font-size:30;text-anchor:left;text-align:left" y="-89.8007862662" x="598.314972119" id="a2_text">a2</text>
        <circle d="M 1380.0867,73.036415 C 1380.0867,75.797839 1377.8481,78.036415 1375.0867,78.036415 C 1372.3252,78.036415 1370.0867,75.797839 1370.0867,73.036415 C 1370.0867,70.274991 1372.3252,68.036415 1375.0867,68.036415 C 1377.8481,68.036415 1380.0867,70.274991 1380.0867,73.036415 z" reference="true" stroke-width="1" stroke="red" fill="red" r="5" cy="73.0364163091" cx="1375.08664094" id="a3" />
        <text reference="true" style="font-size:30;text-anchor:left;text-align:left" y="65.0364163091" x="1383.08664094" id="a3_text">a3</text>
        <circle d="M 595.315,526.44647 C 595.315,529.2079 593.07643,531.44647 590.315,531.44647 C 587.55358,531.44647 585.315,529.2079 585.315,526.44647 C 585.315,523.68505 587.55358,521.44647 590.315,521.44647 C 593.07643,521.44647 595.315,523.68505 595.315,526.44647 z" reference="true" stroke-width="1" stroke="red" fill="red" r="5" cy="526.446488756" cx="590.314972119" id="a4" />
        <text reference="true" style="font-size:30;text-anchor:left;text-align:left" y="518.446488756" x="598.314972119" id="a4_text">a4</text>
        <circle d="M 224.45827,584.29132 C 224.45827,587.05274 222.21969,589.29132 219.45827,589.29132 C 216.69684,589.29132 214.45827,587.05274 214.45827,584.29132 C 214.45827,581.5299 216.69684,579.29132 219.45827,579.29132 C 222.21969,579.29132 224.45827,581.5299 224.45827,584.29132 z" reference="true" stroke-width="1" stroke="red" fill="red" r="5" cy="584.291330473" cx="219.458271988" id="a5" />
        <text reference="true" style="font-size:30;text-anchor:left;text-align:left" y="576.291330473" x="227.458271988" id="a5_text">a5</text>
        <circle d="M 5,584.29132 C 5,587.05274 2.7614237,589.29132 0,589.29132 C -2.7614237,589.29132 -5,587.05274 -5,584.29132 C -5,581.5299 -2.7614237,579.29132 0,579.29132 C 2.7614237,579.29132 5,581.5299 5,584.29132 z" reference="true" stroke-width="1" stroke="red" fill="red" r="5" cy="584.291330473" cx="0.0" id="a6" />
        <text reference="true" style="font-size:30;text-anchor:left;text-align:left" y="576.291330473" x="8.0" id="a6_text">a6</text>
        <circle d="M 241.12599,157.75865 C 241.12599,160.52008 238.88742,162.75865 236.12599,162.75865 C 233.36457,162.75865 231.12599,160.52008 231.12599,157.75865 C 231.12599,154.99723 233.36457,152.75865 236.12599,152.75865 C 238.88742,152.75865 241.12599,154.99723 241.12599,157.75865 z" reference="true" stroke-width="1" stroke="gray" fill="none" r="5" cy="157.758659228" cx="236.125988848" id="a2.c1" />
        <text reference="true" style="font-size:30;text-anchor:left;text-align:left" y="149.758659228" x="244.125988848" id="a2.c1_text">a2.c1</text>
        <circle d="M 595.315,157.75865 C 595.315,160.52008 593.07643,162.75865 590.315,162.75865 C 587.55358,162.75865 585.315,160.52008 585.315,157.75865 C 585.315,154.99723 587.55358,152.75865 590.315,152.75865 C 593.07643,152.75865 595.315,154.99723 595.315,157.75865 z" reference="true" stroke-width="1" stroke="gray" fill="none" r="5" cy="157.758659228" cx="590.314972119" id="a2.c2" />
        <text reference="true" style="font-size:30;text-anchor:left;text-align:left" y="149.758659228" x="598.314972119" id="a2.c2_text">a2.c2</text>
        <circle d="M 1226.8967,-55.50515 C 1226.8967,-52.743726 1224.6582,-50.50515 1221.8967,-50.50515 C 1219.1353,-50.50515 1216.8967,-52.743726 1216.8967,-55.50515 C 1216.8967,-58.266574 1219.1353,-60.50515 1221.8967,-60.50515 C 1224.6582,-60.50515 1226.8967,-58.266574 1226.8967,-55.50515 z" reference="true" stroke-width="1" stroke="gray" fill="none" r="5" cy="-55.5051485884" cx="1221.89676917" id="a3.c2" />
        <text reference="true" style="font-size:30;text-anchor:left;text-align:left" y="-63.5051485884" x="1229.89676917" id="a3.c2_text">a3.c2</text>
        <circle d="M 912.60065,-68.590729 C 912.60065,-65.829305 910.36207,-63.590729 907.60065,-63.590729 C 904.83922,-63.590729 902.60065,-65.829305 902.60065,-68.590729 C 902.60065,-71.352153 904.83922,-73.590729 907.60065,-73.590729 C 910.36207,-73.590729 912.60065,-71.352153 912.60065,-68.590729 z" reference="true" stroke-width="1" stroke="gray" fill="none" r="5" cy="-68.5907320124" cx="907.600672014" id="a3.c1" />
        <text reference="true" style="font-size:30;text-anchor:left;text-align:left" y="-76.5907320124" x="915.600672014" id="a3.c1_text">a3.c1</text>
        <circle d="M 1284.328,278.39154 C 1284.328,281.15296 1282.0894,283.39154 1279.328,283.39154 C 1276.5666,283.39154 1274.328,281.15296 1274.328,278.39154 C 1274.328,275.63012 1276.5666,273.39154 1279.328,273.39154 C 1282.0894,273.39154 1284.328,275.63012 1284.328,278.39154 z" reference="true" stroke-width="1" stroke="gray" fill="none" r="5" cy="278.391550053" cx="1279.32796943" id="a4.c1" />
        <text reference="true" style="font-size:30;text-anchor:left;text-align:left" y="270.391550053" x="1287.32796943" id="a4.c1_text">a4.c1</text>
        <circle d="M 280.7594,584.29132 C 280.7594,587.05274 278.52082,589.29132 275.7594,589.29132 C 272.99798,589.29132 270.7594,587.05274 270.7594,584.29132 C 270.7594,581.5299 272.99798,579.29132 275.7594,579.29132 C 278.52082,579.29132 280.7594,581.5299 280.7594,584.29132 z" reference="true" stroke-width="1" stroke="gray" fill="none" r="5" cy="584.291330473" cx="275.759392308" id="a5.c2" />
        <text reference="true" style="font-size:30;text-anchor:left;text-align:left" y="576.291330473" x="283.759392308" id="a5.c2_text">a5.c2</text>
        <circle d="M 1115.4891,367.89111 C 1115.4891,370.65254 1113.2506,372.89111 1110.4891,372.89111 C 1107.7277,372.89111 1105.4891,370.65254 1105.4891,367.89111 C 1105.4891,365.12969 1107.7277,362.89111 1110.4891,362.89111 C 1113.2506,362.89111 1115.4891,365.12969 1115.4891,367.89111 z" reference="true" stroke-width="1" stroke="gray" fill="none" r="5" cy="367.891127839" cx="1110.48918647" id="a4.c2" />
        <text reference="true" style="font-size:30;text-anchor:left;text-align:left" y="359.891127839" x="1118.48918647" id="a4.c2_text">a4.c2</text>
        <circle d="M 497.29916,556.32288 C 497.29916,559.0843 495.06059,561.32288 492.29916,561.32288 C 489.53774,561.32288 487.29916,559.0843 487.29916,556.32288 C 487.29916,553.56145 489.53774,551.32288 492.29916,551.32288 C 495.06059,551.32288 497.29916,553.56145 497.29916,556.32288 z" reference="true" stroke-width="1" stroke="gray" fill="none" r="5" cy="556.322888439" cx="492.299158319" id="a5.c1" />
        <text reference="true" style="font-size:30;text-anchor:left;text-align:left" y="548.322888439" x="500.299158319" id="a5.c1_text">a5.c1</text>
        <text style="font-size:38;text-anchor:left;text-align:left" y="146.072832618" x="907.600672014" id="A_letter">A</text>
        <text style="font-size:25;text-anchor:left;text-align:left" y="181.505903484" x="907.600672014" id="A_label">Felt Slippers</text>
        <text style="font-size:20;text-anchor:left;text-align:left" y="216.93897435" x="907.600672014" id="A_fabric">Cut 2 of fabric</text>
        <path style="fill:none;stroke:green;stroke-width:4" d="M 534.0625,-81.8125 C 534.64755,-48.979674 523.82439,-15.291144 500.34375,8.28125 C 469.37179,40.11705 426.8459,56.898815 385.0625,69.21875 C 303.70791,91.77871 218.64044,97.291535 134.53125,100.15625 C 71.007622,101.94491 7.3408727,101.4086 -56.25,101.5 C -56.25,281.17708 -56.25,460.85417 -56.25,640.53125 C 39.363188,640.38518 134.9875,640.82373 230.59375,640.3125 C 296.71055,636.84385 362.28105,627.53508 427.69435,617.62603 C 497.20897,606.47727 566.84416,594.01348 633.86693,571.92891 C 767.73714,530.45276 901.58742,487.88866 1030.948,433.60658 C 1126.0876,393.04355 1220.2649,345.34041 1297.3438,275.21875 C 1352.3661,225.33344 1395.6182,163.32814 1426.4857,95.937714 C 1432.4801,83.104309 1438.4744,70.270905 1444.4688,57.4375 C 1415.2699,33.073325 1386.3329,7.9423287 1352.9605,-10.656451 C 1273.0533,-56.652739 1182.6673,-80.21226 1092.6262,-96.656668 C 944.89763,-122.50249 794.69063,-129.05081 645.09996,-135.79479 C 608.08755,-137.35456 571.07488,-138.9082 534.0625,-140.46875 C 534.0625,-120.91667 534.0625,-101.36458 534.0625,-81.8125 z" id="A_cuttingline" inkscape:connector-curvature="0" />
      </g>
      <g transform="translate(70.8661417323 1020.4228254)" inkscape:groupmode="layer" inkscape:label="slipper_sole" id="B">
        <circle d="M 5,306.14172 C 5,308.90315 2.7614237,311.14172 0,311.14172 C -2.7614237,311.14172 -5,308.90315 -5,306.14172 C -5,303.3803 -2.7614237,301.14172 0,301.14172 C 2.7614237,301.14172 5,303.3803 5,306.14172 z" reference="true" stroke-width="1" stroke="red" fill="red" r="5" cy="306.141729242" cx="0.0" id="b1" />
        <text reference="true" style="font-size:30;text-anchor:left;text-align:left" y="298.141729242" x="8.0" id="b1_text">b1</text>
        <circle d="M 1472.0531,272.12598 C 1472.0531,274.8874 1469.8145,277.12598 1467.0531,277.12598 C 1464.2917,277.12598 1462.0531,274.8874 1462.0531,272.12598 C 1462.0531,269.36455 1464.2917,267.12598 1467.0531,267.12598 C 1469.8145,267.12598 1472.0531,269.36455 1472.0531,272.12598 z" reference="true" stroke-width="1" stroke="red" fill="red" r="5" cy="272.125981549" cx="1467.05312015" id="b2" />
        <text reference="true" style="font-size:30;text-anchor:left;text-align:left" y="264.125981549" x="1475.05312015" id="b2_text">b2</text>
        <circle d="M 1088.4016,0 C 1088.4016,2.7614237 1086.163,5 1083.4016,5 C 1080.6402,5 1078.4016,2.7614237 1078.4016,0 C 1078.4016,-2.7614237 1080.6402,-5 1083.4016,-5 C 1086.163,-5 1088.4016,-2.7614237 1088.4016,0 z" reference="true" stroke-width="1" stroke="red" fill="red" r="5" cy="0.0" cx="1083.40159589" id="b3" />
        <text reference="true" style="font-size:30;text-anchor:left;text-align:left" y="-8.0" x="1091.40159589" id="b3_text">b3</text>
        <circle d="M 977.28351,680.31494 C 977.28351,683.07637 975.04493,685.31494 972.28351,685.31494 C 969.52208,685.31494 967.28351,683.07637 967.28351,680.31494 C 967.28351,677.55352 969.52208,675.31494 972.28351,675.31494 C 975.04493,675.31494 977.28351,677.55352 977.28351,680.31494 z" reference="true" stroke-width="1" stroke="red" fill="red" r="5" cy="680.314953872" cx="972.28348349" id="b4" />
        <text reference="true" style="font-size:30;text-anchor:left;text-align:left" y="672.314953872" x="980.28348349" id="b4_text">b4</text>
        <circle d="M 268.90552,68.740158 C 268.90552,71.501582 266.66694,73.740158 263.90552,73.740158 C 261.14409,73.740158 258.90552,71.501582 258.90552,68.740158 C 258.90552,65.978734 261.14409,63.740158 263.90552,63.740158 C 266.66694,63.740158 268.90552,65.978734 268.90552,68.740158 z" reference="true" stroke-width="1" stroke="red" fill="red" r="5" cy="68.7401611974" cx="263.905516947" id="b5" />
        <text reference="true" style="font-size:30;text-anchor:left;text-align:left" y="60.7401611974" x="271.905516947" id="b5_text">b5</text>
        <circle d="M 268.90552,543.54327 C 268.90552,546.3047 266.66694,548.54327 263.90552,548.54327 C 261.14409,548.54327 258.90552,546.3047 258.90552,543.54327 C 258.90552,540.78185 261.14409,538.54327 263.90552,538.54327 C 266.66694,538.54327 268.90552,540.78185 268.90552,543.54327 z" reference="true" stroke-width="1" stroke="red" fill="red" r="5" cy="543.543297287" cx="263.905516947" id="b6" />
        <text reference="true" style="font-size:30;text-anchor:left;text-align:left" y="535.543297287" x="271.905516947" id="b6_text">b6</text>
        <circle d="M 5,128.65538 C 5,131.4168 2.7614237,133.65538 0,133.65538 C -2.7614237,133.65538 -5,131.4168 -5,128.65538 C -5,125.89396 -2.7614237,123.65538 0,123.65538 C 2.7614237,123.65538 5,125.89396 5,128.65538 z" reference="true" stroke-width="1" stroke="gray" fill="none" r="5" cy="128.655373157" cx="0.0" id="b5.c1" />
        <text reference="true" style="font-size:30;text-anchor:left;text-align:left" y="120.655373157" x="8.0" id="b5.c1_text">b5.c1</text>
        <circle d="M 151.03154,58.427525 C 151.03154,61.188948 148.79296,63.427525 146.03154,63.427525 C 143.27012,63.427525 141.03154,61.188948 141.03154,58.427525 C 141.03154,55.666101 143.27012,53.427525 146.03154,53.427525 C 148.79296,53.427525 151.03154,55.666101 151.03154,58.427525 z" reference="true" stroke-width="1" stroke="gray" fill="none" r="5" cy="58.4275244026" cx="146.031539004" id="circle7292" />
        <text reference="true" style="font-size:30;text-anchor:left;text-align:left" y="50.4275244026" x="154.031539004" id="text7294">b5.c1</text>
        <circle d="M 760.45233,111.74493 C 760.45233,114.50636 758.21376,116.74493 755.45233,116.74493 C 752.69091,116.74493 750.45233,114.50636 750.45233,111.74493 C 750.45233,108.98351 752.69091,106.74493 755.45233,106.74493 C 758.21376,106.74493 760.45233,108.98351 760.45233,111.74493 z" reference="true" stroke-width="1" stroke="gray" fill="none" r="5" cy="111.744932455" cx="755.452301687" id="b3.c1" />
        <text reference="true" style="font-size:30;text-anchor:left;text-align:left" y="103.744932455" x="763.452301687" id="b3.c1_text">b3.c1</text>
        <circle d="M 882.80811,0 C 882.80811,2.7614237 880.56953,5 877.80811,5 C 875.04668,5 872.80811,2.7614237 872.80811,0 C 872.80811,-2.7614237 875.04668,-5 877.80811,-5 C 880.56953,-5 882.80811,-2.7614237 882.80811,0 z" reference="true" stroke-width="1" stroke="gray" fill="none" r="5" cy="0.0" cx="877.808090222" id="b3.c2" />
        <text reference="true" style="font-size:30;text-anchor:left;text-align:left" y="-8.0" x="885.808090222" id="b3.c2_text">b3.c2</text>
        <circle d="M 1323.5829,0 C 1323.5829,2.7614237 1321.3443,5 1318.5829,5 C 1315.8215,5 1313.5829,2.7614237 1313.5829,0 C 1313.5829,-2.7614237 1315.8215,-5 1318.5829,-5 C 1321.3443,-5 1323.5829,-2.7614237 1323.5829,0 z" reference="true" stroke-width="1" stroke="gray" fill="none" r="5" cy="0.0" cx="1318.58293119" id="b2.c1" />
        <text reference="true" style="font-size:30;text-anchor:left;text-align:left" y="-8.0" x="1326.58293119" id="b2.c1_text">b2.c1</text>
        <circle d="M 1472.0531,63.075905 C 1472.0531,65.837329 1469.8145,68.075905 1467.0531,68.075905 C 1464.2917,68.075905 1462.0531,65.837329 1462.0531,63.075905 C 1462.0531,60.314481 1464.2917,58.075905 1467.0531,58.075905 C 1469.8145,58.075905 1472.0531,60.314481 1472.0531,63.075905 z" reference="true" stroke-width="1" stroke="gray" fill="none" r="5" cy="63.0759057234" cx="1467.05312015" id="b2.c2" />
        <text reference="true" style="font-size:30;text-anchor:left;text-align:left" y="55.0759057234" x="1475.05312015" id="b2.c2_text">b2.c2</text>
        <circle d="M 1472.0531,528.69263 C 1472.0531,531.45405 1469.8145,533.69263 1467.0531,533.69263 C 1464.2917,533.69263 1462.0531,531.45405 1462.0531,528.69263 C 1462.0531,525.9312 1464.2917,523.69263 1467.0531,523.69263 C 1469.8145,523.69263 1472.0531,525.9312 1472.0531,528.69263 z" reference="true" stroke-width="1" stroke="gray" fill="none" r="5" cy="528.692613981" cx="1467.05312015" id="b4.c1" />
        <text reference="true" style="font-size:30;text-anchor:left;text-align:left" y="520.692613981" x="1475.05312015" id="b4.c1_text">b4.c1</text>
        <circle d="M 1137.6376,680.31494 C 1137.6376,683.07637 1135.399,685.31494 1132.6376,685.31494 C 1129.8761,685.31494 1127.6376,683.07637 1127.6376,680.31494 C 1127.6376,677.55352 1129.8761,675.31494 1132.6376,675.31494 C 1135.399,675.31494 1137.6376,677.55352 1137.6376,680.31494 z" reference="true" stroke-width="1" stroke="gray" fill="none" r="5" cy="680.314953872" cx="1132.63762876" id="b4.c2" />
        <text reference="true" style="font-size:30;text-anchor:left;text-align:left" y="672.314953872" x="1140.63762876" id="b4.c2_text">b4.c2</text>
        <circle d="M 796.91827,680.31494 C 796.91827,683.07637 794.6797,685.31494 791.91827,685.31494 C 789.15685,685.31494 786.91827,683.07637 786.91827,680.31494 C 786.91827,677.55352 789.15685,675.31494 791.91827,675.31494 C 794.6797,675.31494 796.91827,677.55352 796.91827,680.31494 z" reference="true" stroke-width="1" stroke="gray" fill="none" r="5" cy="680.314953872" cx="791.918258612" id="b6.c1" />
        <text reference="true" style="font-size:30;text-anchor:left;text-align:left" y="672.314953872" x="799.918258612" id="b6.c1_text">b6.c1</text>
        <circle d="M 557.48987,543.54327 C 557.48987,546.3047 555.25129,548.54327 552.48987,548.54327 C 549.72844,548.54327 547.48987,546.3047 547.48987,543.54327 C 547.48987,540.78185 549.72844,538.54327 552.48987,538.54327 C 555.25129,538.54327 557.48987,540.78185 557.48987,543.54327 z" reference="true" stroke-width="1" stroke="gray" fill="none" r="5" cy="543.543297287" cx="552.489876753" id="b6.c2" />
        <text reference="true" style="font-size:30;text-anchor:left;text-align:left" y="535.543297287" x="560.489876753" id="b6.c2_text">b6.c2</text>
        <circle d="M 190.02269,543.54327 C 190.02269,546.3047 187.78411,548.54327 185.02269,548.54327 C 182.26127,548.54327 180.02269,546.3047 180.02269,543.54327 C 180.02269,540.78185 182.26127,538.54327 185.02269,538.54327 C 187.78411,538.54327 190.02269,540.78185 190.02269,543.54327 z" reference="true" stroke-width="1" stroke="gray" fill="none" r="5" cy="543.543297287" cx="185.022692021" id="b1.c1" />
        <text reference="true" style="font-size:30;text-anchor:left;text-align:left" y="535.543297287" x="193.022692021" id="b1.c1_text">b1.c1</text>
        <circle d="M 5,483.62808 C 5,486.38951 2.7614237,488.62808 0,488.62808 C -2.7614237,488.62808 -5,486.38951 -5,483.62808 C -5,480.86666 -2.7614237,478.62808 0,478.62808 C 2.7614237,478.62808 5,480.86666 5,483.62808 z" reference="true" stroke-width="1" stroke="gray" fill="none" r="5" cy="483.628085327" cx="0.0" id="b1.c2" />
        <text reference="true" style="font-size:30;text-anchor:left;text-align:left" y="475.628085327" x="8.0" id="b1.c2_text">b1.c2</text>
        <path style="fill:none;stroke:green;stroke-width:4" d="M 1078.2188,-56.21875 C 993.12997,-56.107655 910.13681,-34.875732 827.65221,-16.595091 C 737.66683,3.6653529 646.06531,16.889178 553.85082,20.634905 C 455.3403,25.094612 356.85137,20.401822 258.6875,12 C 169.86219,7.0673418 77.494902,39.383917 16.8125,105.65625 C -29.193437,155.10562 -53.310101,222.21276 -55.842923,289.18534 C -59.36946,349.49129 -44.142205,411.35034 -9.03125,460.96875 C 35.129414,524.42928 105.1313,566.10271 178.54805,586.83069 C 211.30828,596.20822 245.47862,600.77403 279.62471,599.94811 C 407.39193,601.9934 532.11934,633.41241 653.90625,669.09375 C 739.81169,693.64745 825.38543,721.7669 914.36801,732.8993 C 959.14155,738.70326 1004.8342,737.58971 1049.0904,728.74614 C 1138.5278,711.31885 1224.0082,675.27776 1300.5938,626.125 C 1378.2804,575.70603 1447.9311,508.63637 1488.3438,424.28125 C 1515.1742,368.91189 1526.8799,306.59657 1522.5312,245.25 C 1519.2617,181.22095 1499.8193,116.29518 1458.2188,66.53125 C 1417.6223,17.038675 1358.6965,-14.340122 1297.7473,-31.503957 C 1226.518,-51.579673 1151.9131,-56.37117 1078.2188,-56.21875 z" id="B_cuttingline" inkscape:connector-curvature="0" />
      </g>
      <text style="font-size:34;text-anchor:middle;text-align:center" y="70.8661417323" x="857.542308106" id="title">Felt Slippers</text>
      <text style="font-size:20px;text-align:center;text-anchor:middle" y="106.29921" x="857.5423" id="note0">Remove Points: Press CTRL-F. Type &quot;reference&quot; in Attribute field then click Find button. Press DELETE.</text>
    </g>
  </g>
</svg>
